\relax 
\newlabel{eqn:eqlabel}{{2}{1}}
\@writefile{toc}{\contentsline {section}{\tocsection {}{1}{Weak Forms}}{1}}
\newlabel{eqn:eqlabel}{{3}{1}}
\@writefile{toc}{\contentsline {section}{\tocsection {}{2}{Boundary Conditions}}{1}}
\@writefile{toc}{\contentsline {section}{\tocsection {}{3}{Residuals}}{1}}
\@writefile{toc}{\contentsline {subsection}{\tocsubsection {}{3.1}{$f0$ for $u$}}{1}}
\@writefile{toc}{\contentsline {subsection}{\tocsubsection {}{3.2}{$f1$ for $u$}}{1}}
\@writefile{toc}{\contentsline {subsection}{\tocsubsection {}{3.3}{$f0$ for $f$}}{1}}
\newlabel{tocindent-1}{0pt}
\newlabel{tocindent0}{0pt}
\newlabel{tocindent1}{19.4667pt}
\newlabel{tocindent2}{32.18062pt}
\newlabel{tocindent3}{0pt}
\@writefile{toc}{\contentsline {subsection}{\tocsubsection {}{3.4}{$f1$ for $f$}}{2}}
\@writefile{toc}{\contentsline {subsection}{\tocsubsection {}{3.5}{Jacobian}}{2}}
\@writefile{toc}{\contentsline {subsection}{\tocsubsection {}{3.6}{MMS}}{2}}
